{
    "color": {
        "primary": "139D61",
        "home_greeting_text": "AEE6E6",
        "default_account_bg": "16697A",
        "highlight_account_type_bg": "DB6400",
        "bg_home_color_1": "FFFBEE",
        "bg_home_color_2": "EDD7AF",
        "bg_menu": "F4F4F4",
        "menu_border": "F4F4F4",
        "text_menu": "000000",
        "text": "000000",
        "action_text": "139D61",
        "bg_widget": "FFFFFFFF"
    },
    "image": {
        "home_bg": "Assets/Dark/preferred_home_bg_dark.png",
        "home_season_bg": "Assets/Dark/home_season_bg.png",
        "ic_new_account": "Assets/Dark/ic_new_account.png",
        "ic_payment": "Assets/Dark/ic_payment.png",
        "ic_td": "Assets/Dark/ic_td.png",
        "ic_transfer": "Assets/Dark/ic_transfer.png",
        "ic_withdrawal": "Assets/Dark/ic_withdrawal.png",
        "ic_account": "Assets/Dark/ic_wallet.png",
        "ic_tab_scan": "Assets/Dark/ic_tab_scan.png"
    }
}
